Homework1/P1_Test.txt.vcd
$date
	08/06/17 15:07:35
$end
$version
	RIMS 2.7
$end
$timescale
	1 ms
$end
$scope module RIMS $end
$var wire 1 *TMR TIMER_ISR $end
$var wire 1 *A0 A0 $end
$var wire 1 *A1 A1 $end
$var wire 1 *A2 A2 $end
$var wire 1 *A3 A3 $end
$var wire 1 *A4 A4 $end
$var wire 1 *A5 A5 $end
$var wire 1 *A6 A6 $end
$var wire 1 *A7 A7 $end
$var wire 1 *B0 B0 $end
$var wire 1 *B1 B1 $end
$var wire 1 *B2 B2 $end
$var wire 1 *B3 B3 $end
$var wire 1 *B4 B4 $end
$var wire 1 *B5 B5 $end
$var wire 1 *B6 B6 $end
$var wire 1 *B7 B7 $end
$upscope $end
$enddefinitions $end

#0
$dumpvars
b0 *TMR
b0 *A0
b0 *A1
b0 *A2
b0 *A3
b0 *A4
b0 *A5
b0 *A6
b0 *A7
b0 *B0
b0 *B1
b0 *B2
b0 *B3
b0 *B4
b0 *B5
b0 *B6
b0 *B7
$end
#10
b1 *B0
#10
b1 *B1
#10
b1 *B2
#10
b1 *B4
#10
b1 *B5
#10
b1 *B6
#10
b1 *B7
#50
b0 *A0
#50
b0 *A1
#50
b0 *A2
#50
b0 *A6
#50
b0 *A7
#50
b0 *A0
#50
b0 *A1
#50
b0 *A2
#50
b0 *A6
#50
b0 *A7
#56
b0 *B0
#56
b0 *B1
#56
b0 *B2
#550
b1 *A6
#550
b1 *A7
#550
b1 *A6
#550
b1 *A7
#557
b1 *B0
#557
b1 *B1
#1050
b1 *A0
#1050
b1 *A1
#1050
b1 *A2
#1050
b1 *A3
#1050
b1 *A4
#1050
b1 *A5
#1050
b1 *A0
#1050
b1 *A1
#1050
b1 *A2
#1050
b1 *A3
#1050
b1 *A4
#1050
b1 *A5
#1059
b0 *B0
#1059
b0 *B1
#1059
b1 *B2
#1059
b1 *B3
#1600
b0 *A3
#1600
b0 *A4
#1600
b0 *A5
#1600
b0 *A3
#1600
b0 *A4
#1600
b0 *A5
#1607
b1 *B0
#1607
b1 *B1
#1607
b0 *B3
#10
b1 *B0
#10
b1 *B1
#10
b1 *B2
#10
b1 *B4
#10
b1 *B5
#10
b1 *B6
#10
b1 *B7
#50
b0 *A0
#50
b0 *A1
#50
b0 *A2
#50
b0 *A6
#50
b0 *A7
#50
b0 *A0
#50
b0 *A1
#50
b0 *A2
#50
b0 *A6
#50
b0 *A7
#56
b0 *B0
#56
b0 *B1
#56
b0 *B2
#550
b1 *A6
#550
b1 *A7
#550
b1 *A6
#550
b1 *A7
#557
b1 *B0
#557
b1 *B1
#1050
b1 *A0
#1050
b1 *A1
#1050
b1 *A2
#1050
b1 *A3
#1050
b1 *A4
#1050
b1 *A5
#1050
b1 *A0
#1050
b1 *A1
#1050
b1 *A2
#1050
b1 *A3
#1050
b1 *A4
#1050
b1 *A5
#1059
b0 *B0
#1059
b0 *B1
#1059
b1 *B2
#1059
b1 *B3
#1600
b0 *A3
#1600
b0 *A4
#1600
b0 *A5
#1600
b0 *A3
#1600
b0 *A4
#1600
b0 *A5
#1607
b1 *B0
#1607
b1 *B1
#1607
b0 *B3
