Homework1/P4.txt.vcd
$date
	08/07/17 11:39:00
$end
$version
	RIMS 2.7
$end
$timescale
	1 ms
$end
$scope module RIMS $end
$var wire 1 *TMR TIMER_ISR $end
$var wire 1 *A0 A0 $end
$var wire 1 *A1 A1 $end
$var wire 1 *A2 A2 $end
$var wire 1 *A3 A3 $end
$var wire 1 *A4 A4 $end
$var wire 1 *A5 A5 $end
$var wire 1 *A6 A6 $end
$var wire 1 *A7 A7 $end
$var wire 1 *B0 B0 $end
$var wire 1 *B1 B1 $end
$var wire 1 *B2 B2 $end
$var wire 1 *B3 B3 $end
$var wire 1 *B4 B4 $end
$var wire 1 *B5 B5 $end
$var wire 1 *B6 B6 $end
$var wire 1 *B7 B7 $end
$upscope $end
$enddefinitions $end

#0
$dumpvars
b0 *TMR
b0 *A0
b0 *A1
b0 *A2
b0 *A3
b0 *A4
b0 *A5
b0 *A6
b0 *A7
b0 *B0
b0 *B1
b0 *B2
b0 *B3
b0 *B4
b0 *B5
b0 *B6
b0 *B7
$end
#150
b1 *A0
#150
b1 *A0
#250
b1 *A1
#250
b1 *A1
#252
b1 *B0
#350
b0 *A0
#350
b0 *A0
#450
b0 *A1
#450
b0 *A1
#1450
b1 *A0
#1450
b1 *A1
#1450
b1 *A2
#1450
b1 *A3
#1450
b1 *A4
#1450
b1 *A5
#1450
b1 *A6
#1450
b1 *A7
#1450
b1 *A0
#1450
b1 *A1
#1450
b1 *A2
#1450
b1 *A3
#1450
b1 *A4
#1450
b1 *A5
#1450
b1 *A6
#1450
b1 *A7
#1456
b0 *B0
#1500
b0 *A0
#1500
b0 *A1
#1500
b0 *A2
#1500
b0 *A3
#1500
b0 *A4
#1500
b0 *A5
#1500
b0 *A6
#1500
b0 *A7
#1500
b0 *A0
#1500
b0 *A1
#1500
b0 *A2
#1500
b0 *A3
#1500
b0 *A4
#1500
b0 *A5
#1500
b0 *A6
#1500
b0 *A7
#1550
b1 *A1
#1550
b1 *A1
#1650
b1 *A0
#1650
b1 *A0
#1657
b1 *B0
#1750
b0 *A1
#1750
b0 *A1
#1900
b0 *A0
#1900
b0 *A0
#2900
b1 *A0
#2900
b1 *A1
#2900
b1 *A2
#2900
b1 *A3
#2900
b1 *A4
#2900
b1 *A5
#2900
b1 *A6
#2900
b1 *A7
#2900
b1 *A0
#2900
b1 *A1
#2900
b1 *A2
#2900
b1 *A3
#2900
b1 *A4
#2900
b1 *A5
#2900
b1 *A6
#2900
b1 *A7
#2908
b0 *B0
#2950
b0 *A0
#2950
b0 *A1
#2950
b0 *A2
#2950
b0 *A3
#2950
b0 *A4
#2950
b0 *A5
#2950
b0 *A6
#2950
b0 *A7
#2950
b0 *A0
#2950
b0 *A1
#2950
b0 *A2
#2950
b0 *A3
#2950
b0 *A4
#2950
b0 *A5
#2950
b0 *A6
#2950
b0 *A7
#3000
b1 *A0
#3000
b1 *A1
#3000
b1 *A0
#3000
b1 *A1
#3005
b1 *B0
#3100
b0 *A0
#3100
b0 *A0
#3200
b1 *A0
#3200
b0 *A1
#3200
b1 *A0
#3200
b0 *A1
#150
b1 *A0
#150
b1 *A0
#250
b1 *A1
#250
b1 *A1
#1258
bOutput pins should never be read *Error
#252
b1 *B0
#350
b0 *A0
#350
b0 *A0
#450
b0 *A1
#450
b0 *A1
#1450
b1 *A0
#1450
b1 *A1
#1450
b1 *A2
#1450
b1 *A3
#1450
b1 *A4
#1450
b1 *A5
#1450
b1 *A6
#1450
b1 *A7
#1450
b1 *A0
#1450
b1 *A1
#1450
b1 *A2
#1450
b1 *A3
#1450
b1 *A4
#1450
b1 *A5
#1450
b1 *A6
#1450
b1 *A7
#1456
b0 *B0
#1500
b0 *A0
#1500
b0 *A1
#1500
b0 *A2
#1500
b0 *A3
#1500
b0 *A4
#1500
b0 *A5
#1500
b0 *A6
#1500
b0 *A7
#1500
b0 *A0
#1500
b0 *A1
#1500
b0 *A2
#1500
b0 *A3
#1500
b0 *A4
#1500
b0 *A5
#1500
b0 *A6
#1500
b0 *A7
#1550
b1 *A1
#1550
b1 *A1
#1650
b1 *A0
#1650
b1 *A0
#8286
bOutput pins should never be read *Error
#1657
b1 *B0
#1750
b0 *A1
#1750
b0 *A1
#1900
b0 *A0
#1900
b0 *A0
#2900
b1 *A0
#2900
b1 *A1
#2900
b1 *A2
#2900
b1 *A3
#2900
b1 *A4
#2900
b1 *A5
#2900
b1 *A6
#2900
b1 *A7
#2900
b1 *A0
#2900
b1 *A1
#2900
b1 *A2
#2900
b1 *A3
#2900
b1 *A4
#2900
b1 *A5
#2900
b1 *A6
#2900
b1 *A7
#2908
b0 *B0
#2950
b0 *A0
#2950
b0 *A1
#2950
b0 *A2
#2950
b0 *A3
#2950
b0 *A4
#2950
b0 *A5
#2950
b0 *A6
#2950
b0 *A7
#2950
b0 *A0
#2950
b0 *A1
#2950
b0 *A2
#2950
b0 *A3
#2950
b0 *A4
#2950
b0 *A5
#2950
b0 *A6
#2950
b0 *A7
#3000
b1 *A0
#3000
b1 *A1
#3000
b1 *A0
#3000
b1 *A1
#15024
bOutput pins should never be read *Error
#3005
b1 *B0
#3100
b0 *A0
#3100
b0 *A0
#3200
b1 *A0
#3200
b0 *A1
#3200
b1 *A0
#3200
b0 *A1
